{
    "client_settings": "Nastavitve odjemalca",
    "example_upstream_reserved": "Lahko določite gorvodni DNS <0>za določene domene</0>",
    "example_upstream_comment": "Lahko določite komentar",
    "upstream_parallel": "Uporabite vzporedne zahteve za pospešitev reševanja s hkratnim poizvedovanjem vseh gorvodnih strežnikov.",
    "parallel_requests": "Vzporedne zahteve",
    "load_balancing": "Uravnavanje obremenitve",
    "load_balancing_desc": "Poizvedujte po enem strežniku navzgor. AdGuard Home s pomočjo tehtanega naključnega algoritma izbere strežnik, tako da se najpogosteje uporablja najhitrejši strežnik.",
    "bootstrap_dns": "Zagonski DNS strežniki",
    "bootstrap_dns_desc": "Zagonski DNS strežniki se uporabljajo za razreševanje IP naslovov DoH/DoT reševalcev, ki jih določite kot navzgornje.",
    "local_ptr_title": "Zasebni povratni strežniki DNS",
    "local_ptr_desc": "Strežniki DNS, ki jih AdGuard Home uporablja za lokalne poizvedbe PTR. Ti strežniki se uporabljajo za razreševanje imen gostiteljev z zasebnimi naslovi IP, na primer \"192.168.12.34\" uporablja DNS. Če ni nastavljen, uporablja naslove privzetih razreševalnikov DNS vašega OS, razen naslovov samega AdGuard Home.",
    "local_ptr_default_resolver": "AdGuard Home privzeto uporablja te povratne razreševalnike DNS: {{ip}}.",
    "local_ptr_no_default_resolver": "AdGuard Home ni mogel določiti ustreznih zasebnih povratnih reševalcev DNS za ta sistem.",
    "local_ptr_placeholder": "V vrstico vnesite en naslov strežnika",
    "resolve_clients_title": "Omogoči obratno reševanje naslovov IP gostiteljev",
    "resolve_clients_desc": "Povratno razrešite naslove IP odjemalcev v njihova gostiteljska imena, tako da pošljete poizvedbe PTR ustreznim razreševalcem (zasebni strežniki DNS za lokalne odjemalce, gorvodni strežniki za odjemalce z javnimi naslovi IP).",
    "use_private_ptr_resolvers_title": "Uporabi zasebne povratne razreševalnike rDNS",
    "use_private_ptr_resolvers_desc": "Opravi povratne preglede DNS za lokalno vročene naslove s pomočjo teh strežnikov. Če je AdGuard onemogočen, se z NXDOMAIN odzove na vse takšne zahteve PTR, razen za odjemalce, znane iz DHCP/etc/hosts itd.",
    "check_dhcp_servers": "Preveri strežnike DHCP",
    "save_config": "Shrani nastavitve",
    "enabled_dhcp": "Strežnik DHCP je omogočen",
    "disabled_dhcp": "Strežnik DHCP je onemogočen",
    "unavailable_dhcp": "DHCP ni na voljo",
    "unavailable_dhcp_desc": "AdGuard Home ne more zagnati strežnika DHCP v vašem operacijskem sistemu",
    "dhcp_title": "Strežnik DHCP (poskusno!)",
    "dhcp_description": "Če vaš usmerjevalnik ne nudi nastavitev DHCP, lahko uporabite AdGuardov vgrajen DHCP strežnik.",
    "dhcp_enable": "Omogoči strežnik DHCP",
    "dhcp_disable": "Onemogoči strežnik DHCP",
    "dhcp_not_found": "Varno je omogočiti vgrajeni strežnik DHCP, ker AdGuard Home v omrežju ni našel nobenega aktivnega strežnika DHCP. Vendar morate to ponovno preveriti ročno, saj samodejno sondiranje trenutno ne zagotavlja 100-odstotnega jamstva.",
    "dhcp_found": "V omrežju je bil najden aktivni DHCP strežnik. Vgrajenega AdGuardovega DHCP strežnika ni varno vključiti.",
    "dhcp_leases": "Najemi DHCP",
    "dhcp_static_leases": "DHCP statični najemi",
    "dhcp_leases_not_found": "Ni najdenih najemov DHCP",
    "dhcp_config_saved": "Nastavitve DHCP so bile uspešno shranjena",
    "dhcp_ipv4_settings": "Nastavitve DHCP IPv4",
    "dhcp_ipv6_settings": "Nastavitve DHCP IPv6",
    "form_error_required": "Zahtevano polje",
    "form_error_ip4_format": "Neveljaven format IPv4",
    "form_error_ip6_format": "Neveljaven format IPv6",
    "form_error_ip_format": "Neveljaven format IP",
    "form_error_mac_format": "Neveljaven MAC format",
    "form_error_client_id_format": "Neveljaven format ID odjemalca",
    "form_error_server_name": "Neveljavno ime strežnika",
    "form_error_subnet": "Podomrežje \"{{cidr}}\" ne vsebuje naslova IP \"{{ip}}\"",
    "form_error_positive": "Mora biti večja od 0",
    "form_error_negative": "Mora biti enako ali več kot 0",
    "range_end_error": "Mora biti večji od začtka razpona",
    "dhcp_form_gateway_input": "IP prehoda",
    "dhcp_form_subnet_input": "Maska podomrežja",
    "dhcp_form_range_title": "Razpon naslovov IP",
    "dhcp_form_range_start": "Začetek razpona",
    "dhcp_form_range_end": "Konec razpona",
    "dhcp_form_lease_title": "Čas najema DHCP (v sekundah)",
    "dhcp_form_lease_input": "Trajanje najema",
    "dhcp_interface_select": "Izberite DHCP vmesnik",
    "dhcp_hardware_address": "Naslov strojne opreme",
    "dhcp_ip_addresses": "IP naslovi",
    "ip": "IP",
    "dhcp_table_hostname": "Ime gostitelja",
    "dhcp_table_expires": "Poteče",
    "dhcp_warning": "Če želite vseeno omogočiti strežnik DHCP, se prepričajte, da v vašem omrežju ni nobenega drugega aktivnega strežnika DHCP, saj lahko to prekine internetno povezljivost naprav v omrežju!",
    "dhcp_error": "AdGuard Home ni mogel ugotoviti, ali je v omrežju še en aktivni strežnik DHCP.",
    "dhcp_static_ip_error": "Za uporabo strežnika DHCP mora biti nastavljen statični naslov IP. AdGuard Home ni uspel ugotoviti, ali je ta omrežni vmesnik nastavljen s statičnim naslovom IP. Prosimo, nastavite statični naslov IP ročno.",
    "dhcp_dynamic_ip_found": "Vaš sistem uporablja dinamično nastavitev naslova IP kartice <0>{{interfaceName}}</0>. Za uporabo strežnika DHCP morate nastaviti statični naslov IP. Vaš trenutni naslov IP je<0>{{ipAddress}}</0>. AdGuard Home bo samodejno nastavil ta naslov IP kot statičen, če pritisnete gumb 'Omogoči strežnik DHCP'.",
    "dhcp_lease_added": "Statičen najem \"{{key}}\" je uspešno dodan",
    "dhcp_lease_deleted": "Statičen najem \"{{key}}\" je uspešno izbrisan",
    "dhcp_new_static_lease": "Nov statični najem",
    "dhcp_static_leases_not_found": "Ni najdenih statičnih najemov DHCP",
    "dhcp_add_static_lease": "Dodaj statičen najem",
    "dhcp_reset_leases": "Ponastavi vse najeme",
    "dhcp_reset_leases_confirm": "Ali ste prepričani, da želite ponastaviti vse najeme?",
    "dhcp_reset_leases_success": "Najemi DHCP so bili uspešno ponastavljeni",
    "dhcp_reset": "Ali ste prepričani, da želite ponastaviti nastavitve DHCP?",
    "country": "Dežela",
    "city": "Mesto",
    "delete_confirm": "Ali ste prepričani, da želite izbrisati \"{{key}}\"?",
    "form_enter_hostname": "Vnesite ime gostitelja",
    "error_details": "Podrobnosti o napaki",
    "response_details": "Podrobnosti o odzivu",
    "request_details": "Podrobnosti o zahtevi",
    "client_details": "Podatki o odjemalcu",
    "details": "Podrobnosti",
    "back": "Nazaj",
    "dashboard": "Nadzorna plošča",
    "settings": "Nastavitve",
    "filters": "Filtri",
    "filter": "Filtriraj",
    "query_log": "Dnevnik poizvedb",
    "compact": "Stisni",
    "nothing_found": "Nič ni bilo najdeno",
    "faq": "Pogosta vprašanja in odgovori (FAQ)",
    "version": "različica",
    "address": "Naslov",
    "protocol": "Protokol",
    "on": "VKL",
    "off": "IZK",
    "copyright": "Avtorske pravice",
    "homepage": "Domača stran",
    "report_an_issue": "Prijavi težavo",
    "privacy_policy": "Politika zasebnosti",
    "enable_protection": "Omogoči zaščito",
    "enabled_protection": "Zaščita je omogočena",
    "disable_protection": "Onemogoči zaščito",
    "disabled_protection": "Zaščita je onemogočena",
    "refresh_statics": "Osveži statistiko",
    "dns_query": "Poizvedbe DNS",
    "blocked_by": "<0>Onemogočeno s filtri</0>",
    "stats_malware_phishing": "Onemogočeno zlonamernih programov/lažnih predstavljanj",
    "stats_adult": "Onemogočeno spletnih strani za odrasle",
    "stats_query_domain": "Najbolj poizvedovane domene",
    "for_last_24_hours": "v zadnjih 24 urah",
    "for_last_days": "zadnjega {{count}} dne",
    "for_last_days_plural": "zadnjih {{count}} dni",
    "stats_disabled": "Statistika je onemogočena. Vklopite ga lahko na <0>strani z nastavitvami</0>.",
    "stats_disabled_short": "Statistika je bila onemogočena",
    "no_domains_found": "Ni najdenih domen",
    "requests_count": "Štavilo zahtev",
    "top_blocked_domains": "Najbolj zavirane domene",
    "top_clients": "Najpogostejši odjemalci",
    "no_clients_found": "Ni najdenih odjemalcev",
    "general_statistics": "Splošna statistika",
    "number_of_dns_query_days": "Število obdelanih poizvedb DNS v zadnjem {{count}} dnevu",
    "number_of_dns_query_days_plural": "Število obdelanih poizvedb DNS v zadnjih {{count}} dneh",
    "number_of_dns_query_24_hours": "Število obdelanih poizvedb DNS v zadnjih 24 urah",
    "number_of_dns_query_blocked_24_hours": "Število zahtev DNS, ki so jih onemogočili filtri za zaviranje oglasov in seznami nedovoljenih, gostiteljev",
    "number_of_dns_query_blocked_24_hours_by_sec": "Število zahtev DNS, ki jih je blokiral AdGuard zaščitni modul brskanja",
    "number_of_dns_query_blocked_24_hours_adult": "Število onemogočenih spletnih strani za odrasle",
    "enforced_save_search": "Prisilno varno iskanje",
    "number_of_dns_query_to_safe_search": "Število zahtev DNS za iskalnike, za katere je bilo uveljavljeno varno iskanje",
    "average_processing_time": "Povprečni čas obdelave",
    "average_processing_time_hint": "Povprečni čas v milisekundah pri obdelavi zahteve DNS",
    "block_domain_use_filters_and_hosts": "Onemogoči domene s filtri in gostiteljskimi datotekami",
    "filters_block_toggle_hint": "Pravila zaviranja lahko nastavite v nastavitvah <a>Filtri</a>.",
    "use_adguard_browsing_sec": "Uporabi AdGuardovo spletno storitev 'Varnost brskanja'",
    "use_adguard_browsing_sec_hint": "AdGuard Home bo preveril ali je domena onemogočena s spletno storitivijo 'Varnost brskanja'ovoljenih. Za izvedbo preverjanja bo uporabil API za iskanje, ki je prijazen do zasebnosti: strežniku se pošlje le kratka predpona zgoščenke domenskega imena SHA256.",
    "use_adguard_parental": "Uporabi AdGuardovo spletno storitev 'Starševski nadzor'",
    "use_adguard_parental_hint": "AdGuard Home bo preveril, če domena vsebuje  vsebine za odrasle. Uporablja enako, za zasebnost prijazen API, kot spletno storitev za varnost brskanja.",
    "enforce_safe_search": "Uporabi varno iskanje",
    "enforce_save_search_hint": "AdGuard Home bo vsilil varno iskanje v naslednjih iskalnikih: Google, YouTube, Bing, DuckDuckGo, Yandex, Pixabay.",
    "no_servers_specified": "Ni določenih strežnikov",
    "general_settings": "Splošne nastavitve",
    "dns_settings": "Nastavitve DNS",
    "dns_blocklists": "Seznam nedovoljenih DNS",
    "dns_allowlists": "Seznam dovoljenih DNS",
    "dns_blocklists_desc": "AdGuard Home bo onemogočil domene, ki ustrezajo seznamom.",
    "dns_allowlists_desc": "Domene i dovoljenih seznamov DNS bodo dovoljene, tudi če so na katerem koli od seznamov nedovoljenih.",
    "custom_filtering_rules": "Pravila filtriranja po meri",
    "encryption_settings": "Nastavitve šifriranja",
    "dhcp_settings": "Nastavitve DHCP",
    "upstream_dns": "Zagonski DNS strežniki",
    "upstream_dns_help": "Vnesite naslove strežnikov, enega na vrstico. <a>Več o tem</a> o konfiguriranju zgornjih strežnikov DNS.",
    "upstream_dns_configured_in_file": "Nastavljen v {{path}}",
    "test_upstream_btn": "Preizkusi upstreame",
    "upstreams": "Tokovi navzgor",
    "apply_btn": "Uporabi",
    "disabled_filtering_toast": "Onemogočeno filtriranje",
    "enabled_filtering_toast": "Omogočeno filtriranje",
    "disabled_safe_browsing_toast": "Onemogočeno varno brskanje",
    "enabled_safe_browsing_toast": "Omogočeno varno brskanje",
    "disabled_parental_toast": "Onemogočen starševski nadzor",
    "enabled_parental_toast": "Omogočen starševski nadzor",
    "disabled_safe_search_toast": "Onemogočeno varno iskanje",
    "enabled_save_search_toast": "Omogočeno varno iskanje",
    "enabled_table_header": "Omogočeno",
    "name_table_header": "Ime",
    "list_url_table_header": "Seznam URL naslovov",
    "rules_count_table_header": "Število pravil",
    "last_time_updated_table_header": "Zadnjič posodobljeno",
    "actions_table_header": "Akcij",
    "request_table_header": "Zahteva",
    "edit_table_action": "Uredi",
    "delete_table_action": "Izbriši",
    "elapsed": "Potekla",
    "filters_and_hosts_hint": "AdGuard Home razume osnovna pravila zaviranja oglasov in sintakso datotek gostiteljev.",
    "no_blocklist_added": "Ni dodanih nobenih seznamov nedovoljenih",
    "no_whitelist_added": "Ni dodanih nobenih dovoljenih seznamov",
    "add_blocklist": "Dodaj seznam nedovoljenih",
    "add_allowlist": "Dodaj seznam dovoljenih",
    "cancel_btn": "Prekliči",
    "enter_name_hint": "Vnesite ime",
    "enter_url_or_path_hint": "Vnesite URL ali absolutno pot seznama",
    "check_updates_btn": "Preveri obstoj posodobitev",
    "new_blocklist": "Nov seznam nedovoljenih",
    "new_allowlist": "Nov seznam dovoljenih",
    "edit_blocklist": "Uredi seznam nedovoljenih",
    "edit_allowlist": "Uredi seznam dovoljenih",
    "choose_blocklist": "Izberite sezname za zaviranje",
    "choose_allowlist": "Izberite sezname dovoljenih",
    "enter_valid_blocklist": "Vnesite veljaven URL naslov seznama nedovoljenih.",
    "enter_valid_allowlist": "Vnesite veljaven URL naslov seznama dovoljenih.",
    "form_error_url_format": "Neveljaven format URL naslova",
    "form_error_url_or_path_format": "Neveljaven URL ali absolutna pot seznama",
    "custom_filter_rules": "Pravila filtriranja po meri",
    "custom_filter_rules_hint": "V vrstico vnesite eno pravilo. Uporabite lahko pravila zaviranja oglasov ali sintakso gostiteljskih datotek.",
    "examples_title": "Primeri",
    "example_meaning_filter_block": "onemogoči dostop do domene example.org in vseh njenih poddomen",
    "example_meaning_filter_whitelist": "omogoči dostop do domene example.org in vseh njenih poddomen",
    "example_meaning_host_block": "AdGuard Home bo zdaj vrnil  naslov  127.0.0.1 za domeno example.org (ne pa tudi njunih poddomen).",
    "example_comment": "! Tukaj je komentar",
    "example_comment_meaning": "samo komentar",
    "example_comment_hash": "# Tudi komentar",
    "example_regex_meaning": "onemogoča dostop do domen, ki se ujemajo z določenim regularnim izrazom",
    "example_upstream_regular": "redni DNS (nad UDP)",
    "example_upstream_dot": "šifriran <0>DNS-prek-TLS</0>",
    "example_upstream_doh": "šifriran <0>DNS-prek-HTTPS</0>",
    "example_upstream_doq": "šifriran <0>DNS-prek-QUIC</0>",
    "example_upstream_sdns": "lahko uporabite <0>DNS Žige</0> za reševalce <1>DNSCrypt</1> ali <2>DNS-prek-HTTPS</2>",
    "example_upstream_tcp": "redni DNS (nad TCP)",
    "all_lists_up_to_date_toast": "Vsi seznami so že posodobljeni",
    "updated_upstream_dns_toast": "Posodobljeni Zagonske strežnike DNS",
    "dns_test_ok_toast": "Navedeni strežniki DNS delujejo pravilno",
    "dns_test_not_ok_toast": "Ni mogoče uporabiti: strežnika \"{{key}}\". Preverite, ali ste ga pravilno napisali",
    "unblock": "Omogoči",
    "block": "Onemogoči",
    "disallow_this_client": "Onemogoči tega odjemalca",
    "allow_this_client": "Dovoli tega odjemalca",
    "block_for_this_client_only": "Onemogoči samo za tega odjemalca",
    "unblock_for_this_client_only": "Omogoči samo za tega odjemalca",
    "time_table_header": "Čas",
    "date": "Datum",
    "domain_name_table_header": "Ime domene",
    "domain_or_client": "Domena ali odjemalec",
    "type_table_header": "Vrsta",
    "response_table_header": "Odgovor",
    "response_code": "Koda odziva",
    "client_table_header": "Odjemalec",
    "empty_response_status": "Prazno",
    "show_all_filter_type": "Prikaži vse",
    "show_filtered_type": "Prikaži filtrirane",
    "no_logs_found": "Ni najdenih dnevnikov",
    "refresh_btn": "Osveži",
    "previous_btn": "Prejšnja",
    "next_btn": "Naslednja",
    "loading_table_status": "Nalaganje...",
    "page_table_footer_text": "Stran",
    "rows_table_footer_text": "vrstic",
    "updated_custom_filtering_toast": "Posodobljena pravila filtriranja po meri",
    "rule_removed_from_custom_filtering_toast": "Pravilo je odstranjeno iz pravil filtriranja po meri: {{rule}}",
    "rule_added_to_custom_filtering_toast": "Pravilo je dodano pravilom filtriranja po meri: {{rule}}",
    "query_log_response_status": "Stanje: {{value}}",
    "query_log_filtered": "Filtriran z {{filter}}",
    "query_log_confirm_clear": "Ali ste prepričani, da želite počistiti celoten dnevnik poizvedb?",
    "query_log_cleared": "Dnevnik poizvedb je uspešno izbrisan",
    "query_log_updated": "Dnevnik poizvedb je bil uspešno posodobljen",
    "query_log_clear": "Počisti dnevnike poizvedb",
    "query_log_retention": "Zadrževanje dnevnikov poizvedb",
    "query_log_enable": "Omogoči dnevni",
    "query_log_configuration": "Konfiguracija dnevnikov",
    "query_log_disabled": "Dnevnik poizvedb je onemogočen in ga je mogoče konfigurirati v <0>nastavitvah</0>",
    "query_log_strict_search": "Za strogo iskanje uporabite dvojne narekovaje",
    "query_log_retention_confirm": "Ali ste prepričani, da želite spremeniti zadrževanje dnevnika poizvedb? Če zmanjšate vrednost intervala, bodo nekateri podatki izgubljeni",
    "anonymize_client_ip": "Anonimiziraj odjemalca IP",
    "anonymize_client_ip_desc": "Ne shrani celotnega naslova IP odjemalca v dnevnikih in statistiki",
    "dns_config": "Konfiguracija strežnika DNS",
    "dns_cache_config": "Konfiguracija strežnika DNS",
    "dns_cache_config_desc": "Tu lahko konfigurirate predpomnilnik DNS",
    "blocking_mode": "Način zaviranja",
    "default": "Privzeto",
    "nxdomain": "NXDOMAIN",
    "refused": "REFUSED",
    "null_ip": "Prazen IP",
    "custom_ip": "IP po meri",
    "blocking_ipv4": "Onemogočanje IPv4",
    "blocking_ipv6": "Onemogočanje IPv6",
    "dnscrypt": "DNSCrypt",
    "dns_over_https": "DNS-prek-HTTPS",
    "dns_over_tls": "DNS-prek-TLS",
    "dns_over_quic": "DNS-prek-QIUC",
    "client_id": "ID odjemalca",
    "client_id_placeholder": "Vnesite ID odjemalca",
    "client_id_desc": "Različne odjemalce je mogoče prepoznati s posebnim ID-jem odjemalca. <a>Tukaj</a> lahko izveste več o prepoznavanju odjemalcev.",
    "download_mobileconfig_doh": "Prenos .mobileconfig za DNS-preko-HTTPS",
    "download_mobileconfig_dot": "Prenos .mobileconfig za DNS-preko-TLS",
    "download_mobileconfig": "Prenesi nastavitveno datoteko",
    "plain_dns": "Navadni DNS",
    "form_enter_rate_limit": "Vnesite omejitev hitrosti",
    "rate_limit": "Omejitev hitrosti",
    "edns_enable": "Omogoči odjemalsko podomrežje EDNS",
    "edns_cs_desc": "Pošlji podomrežja odjemalcev strežnikom DNS.",
    "rate_limit_desc": "Dovoljeno število zahtev na sekundo na odjemalca. Nastavitev na 0 pomeni brez omejitve.",
    "blocking_ipv4_desc": "IP naslov, ki mora biti vrnjen za onemogočeno zahtevo A",
    "blocking_ipv6_desc": "IP naslov, ki mora biti vrnjen za onemogočeno zahtevo AAAA",
    "blocking_mode_default": "Privzeto: odgovori z ničelnim naslovom IP (0.0.0.0 za A; :: za AAAA), ko je onemogočen s pravilom v slogu Adblocka; odgovor z naslovom IP, določenim v pravilu, ko je onemogočen s pravilom /etc/hosts",
    "blocking_mode_refused": "REFUSED: Odziv s kodo REFUSED",
    "blocking_mode_nxdomain": "NXDOMAIN: Odziv s kodo NXDOMAIN",
    "blocking_mode_null_ip": "Prazen IP: Odziv z ničelnim naslovom IP (0.0.0.0 za A; :: za AAAA)",
    "blocking_mode_custom_ip": "IP po meri: Odziv z ročno nastavljenim naslovom IP",
    "upstream_dns_client_desc": "Če pustite to polje prazno, bo AdGuard Home uporabil strežnike, konfigurirane v <0>nastavitvah DNS</0>.",
    "tracker_source": "Vir sledilca",
    "source_label": "Vir",
    "found_in_known_domain_db": "Najdeno v zbirki podatkov znanih domen.",
    "category_label": "Kategorija",
    "rule_label": "Pravila",
    "list_label": "Seznam",
    "unknown_filter": "Neznan filter {{filterId}}",
    "known_tracker": "Znan sledilec",
    "install_welcome_title": "Dobrodošli v AdGuard Home!",
    "install_welcome_desc": "AdGuard Home je omrežni strežnik DNS, ki zavira oglase in sledilce v celotnem omrežju. Njegov namen je omogočanje nadzora nad celotnim omrežjem in vsemi vašimi napravami in ne zahteva uporabo odjemalskega programa.",
    "install_settings_title": "Skrbniški spletni vmesnik",
    "install_settings_listen": "Poslušaj vmesnik",
    "install_settings_port": "Vrata",
    "install_settings_interface_link": "Vaš AdGuard Home Skrbniški spletni vmesnik bo na voljo na naslednjih naslovih:",
    "form_error_port": "Vnesite veljavno številko vrat",
    "install_settings_dns": "DNS strežnik",
    "install_settings_dns_desc": "Vaše naprave ali usmerjevalnik boste morali konfigurirati za uporabo strežnika DNS na naslednjih naslovih:",
    "install_settings_all_interfaces": "Vsi vmesniki",
    "install_auth_title": "Preverjanje pristnosti",
    "install_auth_desc": "Zelo priporočljivo je, da konfigurirate overovitev pristnosti gesla za vaš skrbniški spletni vmesnik AdGuard Home. Tudi če je dostopen v vašem lokalnem omrežju, je še vedno pomembno, da ga zaščitite pred neomejenim dostopom.",
    "install_auth_username": "Uporabniško ime",
    "install_auth_password": "Geslo",
    "install_auth_confirm": "Potrdite geslo",
    "install_auth_username_enter": "Vnesite uporabniško ime",
    "install_auth_password_enter": "Vnesite geslo",
    "install_step": "Korak",
    "install_devices_title": "Konfigurirajte svoje naprave",
    "install_devices_desc": "Če želite, da AdGuard Home začne delovati, morate konfigurirati vaše naprave, da jih bo uporabljal.",
    "install_submit_title": "Čestitamo!",
    "install_submit_desc": "Postopek namestitve je končan in zdaj ste pripravljeni na uporabo AdGuard Home.",
    "install_devices_router": "Usmerjevalnik",
    "install_devices_router_desc": "Ta namestitev samodejno pokriva vse naprave, povezane z vašim domačim usmerjevalnikom, zato vam jih ni treba ročno nastaviti.",
    "install_devices_address": "AdGuard Home strežnik DNS posluša naslednje naslove",
    "install_devices_router_list_1": "Odprite nastavitve vašega usmerjevalnika. Običajno lahko imate dostop do njega iz brskalnika prek URL naslova, kot je http://192.168.0.1/ ali http://192.168.1.1/. Morda boste pozvani, da vnesete geslo. Če se tega ne spomnite, lahko geslo pogosto ponastavite s pritiskom na gumb na samem usmerjevalniku, vendar se zavedajte, da če izberete ta postopek, boste verjetno izgubili celotne nastavitve usmerjevalnika. Nekateri usmerjevalniki zahtevajo posebno aplikacijo, ki mora v tem primeru biti že nameščena v vašem računalniku ali telefonu.",
    "install_devices_router_list_2": "Poiščite nastavitve DHCP/DNS. Poiščite črke DNS poleg polja, ki dovoljuje dva ali tri naborov številk, pri čemer je vsaka razdeljena na štiri skupine z enim do tremi števili.",
    "install_devices_router_list_3": "Tam vnesite svoje naslove strežnikov AdGuard Home.",
    "install_devices_router_list_4": "Pri nekaterih vrstah usmerjevalnikov strežnika DNS po meri ni mogoče nastaviti. V tem primeru vam lahko pomaga nastavitev AdGuard Home kot <0>strežnika DHCP</0>. V nasprotnem primeru bi morali v priročniku usmerjevalnika preveriti, kako prilagodite strežnike DNS na vašem določenem modelu usmerjevalnika.",
    "install_devices_windows_list_1": "Odprite 'Nadzorno ploščo' prek menija 'Začetek' ali 'Iskanja v sistemu Windows'.",
    "install_devices_windows_list_2": "Pojdite v 'Omrežje' in 'Kategorija interneta' in nato v 'Omrežje' in 'Središče za skupno rabo'.",
    "install_devices_windows_list_3": "Na levi strani zaslona poiščite 'Spremeni nastavitve kartice' in kliknite nanjo.",
    "install_devices_windows_list_4": "Izberite aktivno povezavo, kliknite na njo z desno miškino tipko in izberite 'Lastnosti'.",
    "install_devices_windows_list_5": "Na seznamu poiščite 'Internet protokol različica 4 (TCP/IPv4)' (ali, za IPv6, 'Internet protokol različica 6 (TCP/IPv6)'), jo izberite in nato še enkrat kliknite 'Lastnosti'.",
    "install_devices_windows_list_6": "Izberite 'Uporabi naslednje naslove DNS strežnikov' in vnesite vaše naslove strežnika AdGuard Home.",
    "install_devices_macos_list_1": "Kliknite ikono Apple in pojdite na 'Nastavitve sistema'.",
    "install_devices_macos_list_2": "Kliknite na 'Omrežje'",
    "install_devices_macos_list_3": "Izberite prvo povezavo na seznamu in kliknite na 'Napredno'.",
    "install_devices_macos_list_4": "Izberite zavihek DNS in vnesite vaše naslove AdGuard Home strežnika.",
    "install_devices_android_list_1": "Na začetnem zaslonu menija Android tapnite 'Nastavitve'.",
    "install_devices_android_list_2": "V meniju tapnite na 'Wi-Fi'. Prikazal se bo seznam vseh razpoložljivih omrežij (nemogoče je nastaviti DNS po meri za mobilno povezavo).",
    "install_devices_android_list_3": "Dolgo pritisnite na omrežje, s katerim ste povezani, in tapnite 'Spremeni omrežje'.",
    "install_devices_android_list_4": "Na nekaterih napravah boste morda morali potrditi polje 'Napredno', za prikaz dodatnih nastavitev. Če želite prilagoditi nastavitve DNS za Android, morate nastavitve IP preklopiti z DHCP na Statični.",
    "install_devices_android_list_5": "Spremeni nastavitev vrednosti DNS 1 in DNS 2 na naslove strežnikov AdGuard Home.",
    "install_devices_ios_list_1": "Na začetnem zaslonu izberite Nastavitve.",
    "install_devices_ios_list_2": "V levem meniju izberite Wi-Fi (nemogoče je konfigurirati DNS za mobilna omrežja).",
    "install_devices_ios_list_3": "Dotaknite se imena trenutno aktivnega omrežja.",
    "install_devices_ios_list_4": "V polje DNS vnesite vaše naslove AdGuard Home strežnika.",
    "get_started": "Začnimo",
    "next": "Naprej",
    "open_dashboard": "Odpri nadzorno ploščo",
    "install_saved": "Shranjeno uspešno",
    "encryption_title": "Šifriranje",
    "encryption_desc": "Podpora za šifriranje (HTTPS/TLS) za DNS in skrbniški spletni vmesnik",
    "encryption_config_saved": "Nastavitve šifriranja so shranjene",
    "encryption_server": "Ime strežnika",
    "encryption_server_enter": "Vnesite ime vaše domene",
    "encryption_server_desc": "Za uporabo HTTPS morate vnesti ime strežnika, ki se ujema z vašim digitalnim certifikatom SSL.\n",
    "encryption_redirect": "Samodejno preusmeri na HTTPS",
    "encryption_redirect_desc": "Če je označeno, vas bo AdGuard Home samodejno preusmeril iz naslovov HTTP na naslove HTTPS.",
    "encryption_https": "Vrata HTTPS",
    "encryption_https_desc": "Če so vrata HTTPS konfigurirana, bo skrbniški vmesnik AdGuard Home dostopen prek protokola HTTPS, prav tako pa bo zagotovil DNS-prek-HTTPS na mestu '/dns-query'.",
    "encryption_dot": "Vrata DNS-prek-TLS",
    "encryption_dot_desc": "Če so ta vrata konfigurirana, bo AdGuard Home na teh vratih zagnal DNS-prek-TLS strežnika.",
    "encryption_doq": "DNS-prek-vrat QUIC",
    "encryption_doq_desc": "Če so nastavljena ta vrata bo AdGuard Home na teh vratih zagnal strežnik DNS-prek-QUIC. To je eksperimentalno in morda ni zanesljivo. Prav tako trenutno ni preveč odjemalcev, ki to podpirajo.",
    "encryption_certificates": "Digitalna potrdila",
    "encryption_certificates_desc": "Za uporabo šifriranja morate za svojo domeno zagotoviti veljavno verigo potrdil SSL. Brezplačno digitalno potrdilo lahko dobite na <0>{{link}}</0> ali pa ga kupite pri enem od   zaupanja vrednih overiteljev.\n\n",
    "encryption_certificates_input": "Tukaj kopirajte/prilepite PEM šifrirana digitalna potrdila.",
    "encryption_status": "Stanje",
    "encryption_expire": "Poteče",
    "encryption_key": "Zasebni ključ",
    "encryption_key_input": "Tukaj kopirajte/prilepite PEM-kodiran zasebni ključ za vaše digitalno potrdilo.",
    "encryption_enable": "Omogoči šifriranje (HTTPS, DNS-prek-HTTPS in DNS-prek-TLS)",
    "encryption_enable_desc": "Če je omogočeno šifriranje, bo skrbniški vmesnik AdGuard Home deloval prek HTTPS, strežnik DNS pa bo poslušal zahteve prek DNS-prek-HTTPS in DNS-prek-TLS.",
    "encryption_chain_valid": "Veriga digitalih potrdil je veljavna",
    "encryption_chain_invalid": "Veriga digitalih potrdil ni veljavna",
    "encryption_key_valid": "To je veljaven zasebni ključ {{type}}",
    "encryption_key_invalid": "To je neveljaven zasebni ključ {{type}}",
    "encryption_subject": "Predmet",
    "encryption_issuer": "Izdajatelj",
    "encryption_hostnames": "Imena gostiteljev",
    "encryption_reset": "Ali ste prepričani, da želite ponastaviti nastavitve šifriranja?",
    "topline_expiring_certificate": "Vaš e digitalno potrdilo SSL bo kmalu poteklol. Posodobite <0>Nastavitve šifriranja</0>.",
    "topline_expired_certificate": "Vaše digitalno potrdilo SSL je poteklo. Posodobi <0>Nastavitve šifriranja</0>.",
    "form_error_port_range": "Vnesite vrednost vrat v razponu med 80-65535",
    "form_error_port_unsafe": "To so nevarna vrata",
    "form_error_equal": "Ne sme biti enako",
    "form_error_password": "Geslo se ne ujema",
    "reset_settings": "Ponastavi nastavitve",
    "update_announcement": "Zdaj je na voljo AdGuard Home {{version}}! <0>Klinite tukaj</0> za več informacij.",
    "setup_guide": "Navodila za nastavitev",
    "dns_addresses": "DNS naslovi",
    "dns_start": "Zaganja se strežnik DNS",
    "dns_status_error": "Napaka pri pridobivanju stanja strežnika DNS",
    "down": "Navzdol",
    "fix": "Popravi",
    "dns_providers": "Tukaj je  <0>seznam znanih ponudnikov DNS</0>, med katerimi lahko izbirate.",
    "update_now": "Posodobi zdaj",
    "update_failed": "Samodejna posodobitev ni uspela. Prosimo <a>sledite korakom</a>, da ročno posodobite.",
    "processing_update": "Prosimo, počakajte. AdGuard Home se posodablja!",
    "clients_title": "Odjemalci",
    "clients_desc": "Konfigurirajte naprave, ki so povezane z AdGuard Home",
    "settings_global": "Splošno",
    "settings_custom": "Po meri",
    "table_client": "Odjemalec",
    "table_name": "Ime",
    "save_btn": "Shrani",
    "client_add": "Dodaj odjemalca",
    "client_new": "Nov odjemalec",
    "client_edit": "Uredi odjemalca",
    "client_identifier": "Identifikator",
    "ip_address": "IP naslov",
    "client_identifier_desc": "Odjemalce je mogoče prepoznati po naslovu IP, CIDR, naslovu MAC ali posebnem ID-ju odjemalca (lahko se uporablja za DoT/DoH/DoQ). <0>Tukaj</0> lahko izveste več o prepoznavanju odjemalcev.",
    "form_enter_ip": "Vnesite IP",
    "form_enter_subnet_ip": "V podomrežje \"{{cidr}}\" vnesite naslov IP",
    "form_enter_mac": "Vnesite MAC",
    "form_enter_id": "Vnesi identifikatorja",
    "form_add_id": "Dodaj identifikatorja",
    "form_client_name": "Vnesite ime odjemalca",
    "name": "Ime",
    "client_global_settings": "Uporabi splošne nastavitve",
    "client_deleted": "Odjemalec \"{{key}}\" je bil uspešno izbrisan",
    "client_added": "Odjemalec \"{{key}}\" je bil uspešno dodan",
    "client_updated": "Odjemalec \"{{key}}\" je bil uspešno posodobljen",
    "clients_not_found": "Odjemalcev ni bilo mogoče najti",
    "client_confirm_delete": "Ali ste prepričani, da želite izbrisati odjemalca \"{{key}}\"?",
    "list_confirm_delete": "Ali ste prepričani, da želite izbrisati ta seznam?",
    "auto_clients_title": "Odjemalci (čas izvajanja)",
    "auto_clients_desc": "Podatki o odjemalcih, ki uporabljajo AdGuard Home, vendar niso shranjeni v konfiguraciji",
    "access_title": "Nastavitve dostopa",
    "access_desc": "Tukaj lahko nastavite pravila dostopa strežnika DNS AdGuard Home.",
    "access_allowed_title": "Dovoljeni odjemalci",
    "access_allowed_desc": "Seznam naslovov CIDR ali IP. Če je nastavljen, bo AdGuard Home sprejel zahteve samo od teh teh naslovov IP.",
    "access_disallowed_title": "Zavrnjeni odjemalci",
    "access_disallowed_desc": "Seznam naslovov CIDR ali IP. Če je nastavljen, bo AdGuard Home spustil zahteve iz teh naslovov IP.",
    "access_blocked_title": "Prepovedane domene",
    "access_blocked_desc": "Ne gre zamenjati s filtri. AdGuard Home spusti poizvedbe DNS, ki se ujemajo s temi domenami, in te poizvedbe se niti ne pojavijo v dnevniku poizvedb. Določite lahko natančna imena domen, nadomestne znake ali pravila filtriranja URL-jev, npr. ustrezno \"example.org\", \"*.example.org\" ali \"|| example.org ^\".",
    "access_settings_saved": "Nastavitve dostopa so uspešno shranjene",
    "updates_checked": "Posodobitve so uspešno preverjene",
    "updates_version_equal": "AdGuard Home je posodobljen",
    "check_updates_now": "Preveri obstoj posodobitev zdaj",
    "dns_privacy": "Zasebnost DNS",
    "setup_dns_privacy_1": "<0>DNS-prek-TLS:</0> Uporabite niz <1>{{address}}</1>.",
    "setup_dns_privacy_2": "<0>DNS-prek-HTTPS:</0> Uporabite niz <1>{{address}}</1>.",
    "setup_dns_privacy_3": "<0>Tu je seznam programov, ki jo lahko uporabite.</0>",
    "setup_dns_privacy_4": "Na napravo iOS 14 ali macOS Big Sur lahko prenesete posebno datoteko '.mobileconfig', ki v nastavitve DNS doda strežnike <highlight>DNS-preko-HTTPS</highlight> ali <highlight>DNS-preko-TLS</highlight>.",
    "setup_dns_privacy_android_1": "Android 9 izvirno podpira DNS-prek-TLS. Če ga želite konfigurirati, pojdite v Nastavitve → Omrežje in internet → Napredno → Zasebni DNS, in tam vnesite svoje ime domene.",
    "setup_dns_privacy_android_2": "<0>AdGuard za Android</0> podpira <1>DNS-prek-HTTPS</1> in <1>DNS-prek-TLS</1>.",
    "setup_dns_privacy_android_3": "<0>Intra</0> doda podporo <1>DNS-prek-HTTPS</1> za Android.",
    "setup_dns_privacy_ios_1": "<0>DNSCloak</0> podpira <1>DNS-prek-HTTPS</1> vendar za njegovo konfiguracijo, da bo uporabljal svoj strežnik, morate zanj ustvariti <2>DNS Stamp</2>.",
    "setup_dns_privacy_ios_2": "<0>AdGuard za iOS</0> podpira nastavitev <1>DNS-prek-HTTPS</1> in <1>DNS-prek-TLS</1>.",
    "setup_dns_privacy_other_title": "Druge izvedbe",
    "setup_dns_privacy_other_1": "Sam AdGuard Home je lahko varen odjemalec DNS na kateri koli platformi.",
    "setup_dns_privacy_other_2": "<0>dnsproxy</0> podpira vse znane varne protokole DNS.",
    "setup_dns_privacy_other_3": "<0>dnscrypt-proxy</0> podpira <1>DNS-prek-HTTPS</1>.",
    "setup_dns_privacy_other_4": "<0>Mozilla Firefox</0> podpira <1>DNS-prek-HTTPS</1>.",
    "setup_dns_privacy_other_5": "Našli boste več izvedb <0>tukaj</0> in <1>tukaj</1>.",
    "setup_dns_privacy_ioc_mac": "Nastavitve iOS in macOS",
    "setup_dns_notice": "Za uporabo <1>DNS-prek-HTTPS</1> ali <1>DNS-prek-TLS</1>, morate <0>konfigurirati šifriranje</0> v nastavitvah AdGuard Home.",
    "rewrite_added": "Uspešno je dodano DNS prepisovanje za \"{{key}}\"",
    "rewrite_deleted": "Uspešno je izbrisano DNS prepisovanje za \"{{key}}\"",
    "rewrite_add": "Dodaj prepisovanje DNS",
    "rewrite_not_found": "Ni bilo najdenih prepisovanj DNS",
    "rewrite_confirm_delete": "Ali ste prepričani, da želite izbrisati prepisovanje DNS za \"{{key}}\"?",
    "rewrite_desc": "Omogoča enostavno konfiguriranje odgovora DNS po meri za določeno ime domene.",
    "rewrite_applied": "Uporabljeno Pravilo za prepisovanje",
    "rewrite_hosts_applied": "Prepisano s pravilom gostiteljske datoteke",
    "dns_rewrites": "Prepisovanja NDS",
    "form_domain": "Vnesite domeno ali nadomestni znak",
    "form_answer": "Vnesite IP naslov ali ime domene",
    "form_error_domain_format": "Neveljavna oblika domene",
    "form_error_answer_format": "Neveljavna oblika odgovora",
    "configure": "Konfiguriraj",
    "main_settings": "Glavne nastavitve",
    "block_services": "Onemogoči določene storitve",
    "blocked_services": "Onemogočene storitve",
    "blocked_services_desc": "Omogoča hitro onemogočanje priljubljenih spletnih strani in storitev.",
    "blocked_services_saved": "Onemogočene storitve so uspešno shranjene",
    "blocked_services_global": "Uporabi splošne onemogočene storitve",
    "blocked_service": "Onemogočena storitev",
    "block_all": "Onemogoči vse",
    "unblock_all": "Omogoči vse",
    "encryption_certificate_path": "Pot digitalnega potrdila",
    "encryption_private_key_path": "Pot zasebnega ključa",
    "encryption_certificates_source_path": "Nastavi pot datoteke digitalnih potrdil",
    "encryption_certificates_source_content": "Prilepi vsebino digitalnih potrdil",
    "encryption_key_source_path": "Nastavi datoteko zasebnega ključa",
    "encryption_key_source_content": "Prilepi vsebino zasebnega ključa",
    "stats_params": "Nastavitve statistike",
    "config_successfully_saved": "Nastavitve so uspešno shranjene",
    "interval_6_hour": "6 ur",
    "interval_24_hour": "24 ur",
    "interval_days": "{{count}} dan",
    "interval_days_plural": "{{count}} dni",
    "domain": "Domena",
    "punycode": "Slaba koda",
    "answer": "Odgovor",
    "filter_added_successfully": "Seznam je bil uspešno dodan",
    "filter_removed_successfully": "Seznam je bil uspešno odstranjen",
    "filter_updated": "Filter je bil uspešno posodobljen",
    "statistics_configuration": "Nastavitve statistike",
    "statistics_retention": "Statistika zadrževanja",
    "statistics_retention_desc": "Če zmanjšate vrednost intervala, bodo nekateri podatki izgubljeni",
    "statistics_clear": " Počisti statistiko",
    "statistics_clear_confirm": "Ali ste prepričani, da želite počistiti statistiko?",
    "statistics_retention_confirm": "Ali ste prepričani, da želite spremeniti zadrževanje statistike? Če zmanjšate vrednost intervala, bodo nekateri podatki izgubljeni",
    "statistics_cleared": "Statistika je bila uspešno počiščena",
    "interval_hours": "{{count}} ur",
    "interval_hours_plural": "{{count}} ur",
    "filters_configuration": "Nastavitve filtrov",
    "filters_enable": "Omogoči filtre",
    "filters_interval": "Interval posodabljanja filtrov",
    "disabled": "Onemogočeno",
    "username_label": "Uporabniško ime",
    "username_placeholder": "Vnesite uporabniško ime",
    "password_label": "Geslo",
    "password_placeholder": "Vnesite geslo",
    "sign_in": "Vpis",
    "sign_out": "Izpis",
    "forgot_password": "Izgubljeno geslo?",
    "forgot_password_desc": "Prosimo, sledite <0>tem korakom</0>, da ustvarite novogeslo za uporabniški računa.",
    "location": "Lokacija",
    "orgname": "Ime organizacije",
    "netname": "Ime omrežja",
    "network": "Omrežje",
    "descr": "Opis",
    "whois": "Whois",
    "filtering_rules_learn_more": "<0>Več o</0> ustvarjanju lastnih seznamov gostiteljev.",
    "blocked_by_response": "Onemogočeno s CNAME ali IP v odgovoru",
    "blocked_by_cname_or_ip": "Onemogočeno s CNAME ali IP naslovom",
    "try_again": "Poskusi ponovno",
    "domain_desc": "Vnesite ime domene ali nadomestni znak, ki ga želite prepisati.",
    "example_rewrite_domain": "prepiše odgovore samo za to ime domene.",
    "example_rewrite_wildcard": "prepiše odgovore za vse poddomene <0>example.org</0>.",
    "rewrite_ip_address": "IP naslov: uporabi ta IP v odzivu A ali AAAA",
    "rewrite_domain_name": "Ime domene: dodaj CNAME zapis",
    "rewrite_A": ">A</0>: posebna vrednost, obdrži <0>A</0> zapise iz gorvodnega toka",
    "rewrite_AAAA": ">A</0>: posebna vrednost, obdrži <0>AAAA</0> zapise iz gorvodnega toka",
    "disable_ipv6": "Onemogoči reševanje naslovov IPv6",
    "disable_ipv6_desc": "Spusti vse poizvedbe DNS za naslove IPv6 (vnesite AAAA).",
    "fastest_addr": "Najhitrejši IP naslov",
    "fastest_addr_desc": "Zahtevajte vse strežnike DNS in vrne najhitrejši naslov IP med vsemi odgovori. To upočasni zahteve DNS, saj mora AdGuard Home čakati na odgovore vseh strežnikov DNS, vendar izboljša splošno povezljivost.",
    "autofix_warning_text": "Če kliknete 'Popravi', bo AdGuardHome konfiguriral vaš sistem za uporabo strežnika AdGuardHome DNS.",
    "autofix_warning_list": "To bo izvedlo naslednja opravila: <0>Deaktiviraj sistemski DNSStubListener</0> <0>Nastavi naslov strežnika DNS na 127.0.0.1</0> <0>Zamenjaj cilj simbolične povezave /etc/resolv.conf with /run/systemd/resolve/resolv.conf</0> <0>Zaustavi DNSStubListener (znova naloži storitev systemd-resolved)",
    "autofix_warning_result": "Kot rezultat, bo vse zahteve DNS iz vašega sistema privzeto obdelal AdGuard Home.",
    "tags_title": "Oznake",
    "tags_desc": "Izberete lahko oznake, ki ustrezajo odjemalcu. Oznake lahko vključite v pravila filtriranja in vam omogočajo, da jih natančneje uporabite. <0>Več o tem</0>",
    "form_select_tags": "Izberite odjemalske oznake",
    "check_title": "Preveri filtriranje",
    "check_desc": "Preverite, ali je ime gostitelja filtrirano",
    "check": "Preveri",
    "form_enter_host": "Vnesite ime gostitelja",
    "filtered_custom_rules": "Filtrirano s pravili filtriranja po meri",
    "choose_from_list": "Izberi s seznama",
    "add_custom_list": "Dodaj seznam po meri",
    "host_whitelisted": "Gostitelj je na seznamu dovoljenih",
    "check_ip": "IP naslovi: {{ip}}",
    "check_cname": "CNAME: {{cname}}",
    "check_reason": "Razlog: {{reason}}",
    "check_service": "Ime storitve: {{service}}",
    "service_name": "Ime storitve",
    "check_not_found": "Ni najdeno na vašem seznamu filtrov",
    "client_confirm_block": "Ali ste prepričani, da želite onemogočiti odjemalca \"{{ip}}\"?",
    "client_confirm_unblock": "Ali ste prepričani, da želite omogočiti odjemalca \"{{ip}}\"?",
    "client_blocked": "Odjemalec \"{{ip}}\" je uspešno onemogočen",
    "client_unblocked": "Odjemalec \"{{ip}}\" je uspešno omogočen",
    "static_ip": "Statičen IP naslov",
    "static_ip_desc": "AdGuard Home je strežnik, zato za pravilno delovanje potrebuje statičen IP naslov. V nasprotnem primeru lahko vaš usmerjevalnik tej napravi v nekem trenutku dodeli drug IP naslov.",
    "set_static_ip": "Nastavi statičen IP naslov",
    "install_static_ok": "Dobra novica! Statičen IP naslov je že konfiguriran",
    "install_static_error": "AdGuard Home tega omrežnega vmesnika ne more samodejno konfigurirati. Poiščite navodila, kako to storiti ročno.",
    "install_static_configure": "AdGuard Home je zaznal, da se uporablja dinamični naslov IP <0>{{ip}}</0>. Ali želite, da je nastavljen kot vaš statični naslov?",
    "confirm_static_ip": "AdGuard Home bo konfiguriral {{ip}}, da bo postal vas statičen IP naslov. Ali želite nadaljevati?",
    "list_updated": "{{count}} posodobljen seznam",
    "list_updated_plural": "{{count}} posodobljenih seznamov",
    "dnssec_enable": "Omogoči DNSSEC",
    "dnssec_enable_desc": "V prihajajočih poizvedbah DNS nastavite zastavico DNSSEC in preverite rezultat (potreben je razreševalnik z omogočenim DNSSEC).",
    "validated_with_dnssec": "Potrjen z DNSSEC",
    "all_queries": "Vse poizvedbe",
    "show_blocked_responses": "Onemogočen",
    "show_whitelisted_responses": "Na seznamu dovoljenih",
    "show_processed_responses": "Obdelana",
    "blocked_safebrowsing": "Onemogočeno z 'Varnim brskanjem'",
    "blocked_adult_websites": "Onemogočeno spletnih strani za odrasle",
    "blocked_threats": "Onemogočeno groženj",
    "allowed": "Dovoljeno",
    "filtered": "Filtrirano",
    "rewritten": "Znova napisano",
    "safe_search": "Varno iskanje",
    "blocklist": "Seznam nedovoljenih",
    "milliseconds_abbreviation": "ms",
    "cache_size": "Velikost predpomnilnika",
    "cache_size_desc": "Velikost predpomnilnika DNS (v bajtih)",
    "cache_ttl_min_override": "Preglasi najmanjši TTL",
    "cache_ttl_max_override": "Preglasi največji TTL",
    "enter_cache_size": "Vnesite velikost predpomnilnika (v bajtih)",
    "enter_cache_ttl_min_override": "Vnesite najmanjši TTL (v sekundah)",
    "enter_cache_ttl_max_override": "Vnesite največji TTL (v sekundah)",
    "cache_ttl_min_override_desc": "Razširite kratke vrednosti časa v živo (v sekundah), ki jih prejme strežnik za predpomnjenje, ko predpomni odzive DNS",
    "cache_ttl_max_override_desc": "Nastavi največjo vrednost časa v živo (v sekundah) za vnose v predpomnilnik DNS",
    "ttl_cache_validation": "Najmanjša vrednost predpomnilnika TTL mora biti manjša ali enaka največji vrednosti",
    "cache_optimistic": "Optimistično predpomnjenje",
    "cache_optimistic_desc": "Poskrbi, da se AdGuard Home odzove iz predpomnilnika, tudi ko vnosi potečejo, in jih tudi poskusi osvežiti.",
    "filter_category_general": "Splošno",
    "filter_category_security": "Varnost",
    "filter_category_regional": "Področno",
    "filter_category_other": "Drugo",
    "filter_category_general_desc": "Seznami, ki zavirajo sledenje in oglaševanje na večini naprav",
    "filter_category_security_desc": "Seznami, posebej zasnovani za onemogočanje zlonamernih domen, domen z lažnim predstavljanjem in prevarami",
    "filter_category_regional_desc": "Seznami, ki so osredotočeni na področne oglase in strežnike za sledenje",
    "filter_category_other_desc": "Drugi seznami za zaviranje",
    "setup_config_to_enable_dhcp_server": "Nastavite nastavitve, da omogočite strežnik DHCP",
    "original_response": "Izviren odgovor",
    "click_to_view_queries": "Kliknite za prikaz poizvedb",
    "port_53_faq_link": "Vrata 53 pogosto zasedajo storitve 'DNSStubListener' ali 'Sistemsko razrešene storitve'. Preberite <0>to navodilo</0> o tem, kako to rešiti.",
    "adg_will_drop_dns_queries": "AdGuard Home bo izpustil vse poizvedbe DNS iz tega odjemalca.",
    "client_not_in_allowed_clients": "Odjemalec ni dovoljen, ker ga ni na seznamu \"Dovoljeni odjemalci\".",
    "experimental": "Eksperimentalno"
}
