{
    "client_settings": "用戶端設定",
    "example_upstream_reserved": "您可<0>對於特定的網域</0>明確指定 DNS 上游",
    "example_upstream_comment": "您可明確指定註解",
    "upstream_parallel": "透過同時地查詢所有上游的伺服器，使用並行的查詢以加速解析。",
    "parallel_requests": "並行的請求",
    "load_balancing": "負載平衡",
    "load_balancing_desc": "每次查詢一個上游伺服器。AdGuard Home 使用它的加權隨機的演算法來選擇伺服器，以便最快的伺服器被更常使用。",
    "bootstrap_dns": "自我啟動（Bootstrap）DNS 伺服器",
    "bootstrap_dns_desc": "自我啟動（Bootstrap）DNS 伺服器被用於解析您明確指定作為上游的 DoH/DoT 解析器之 IP 位址。",
    "local_ptr_title": "私人反向的 DNS 伺服器",
    "local_ptr_desc": "AdGuard Home 用於區域指標（PTR）查詢之 DNS 伺服器。這些伺服器被用於解析含私人 IP 位址的用戶端之主機名稱，例如，\"192.168.12.34\"，使用反向的 DNS。如果未被設定，除 AdGuard Home 它本身的位址之外，AdGuard Home 使用您的作業系統之預設 DNS 解析器的位址。",
    "local_ptr_default_resolver": "預設下，AdGuard Home 使用以下反向的 DNS 解析器：{{ip}}。",
    "local_ptr_no_default_resolver": "AdGuard Home 無法為此系統決定合適的私人反向的 DNS 解析器。",
    "local_ptr_placeholder": "每行輸入一個伺服器位址",
    "resolve_clients_title": "啟用用戶端的 IP 位址之反向的解析",
    "resolve_clients_desc": "透過傳送指標（PTR）查詢到對應的解析器（私人 DNS 伺服器供區域的用戶端，上游的伺服器供有公共 IP 位址的用戶端），反向地解析用戶端的 IP 位址變為它們的主機名稱。",
    "use_private_ptr_resolvers_title": "使用私人反向的 DNS 解析器",
    "use_private_ptr_resolvers_desc": "對於正使用這些上游伺服器之區域服務的位址執行反向的 DNS 查找。如果被禁用，除已知來自 DHCP、/etc/hosts 等等的用戶端之外，AdGuard Home 對於所有此類的區域指標（PTR）請求以 NXDOMAIN 回覆。",
    "check_dhcp_servers": "檢查動態主機設定協定（DHCP）伺服器",
    "save_config": "儲存配置",
    "enabled_dhcp": "動態主機設定協定（DHCP）伺服器被啟用",
    "disabled_dhcp": "動態主機設定協定（DHCP）伺服器被禁用",
    "unavailable_dhcp": "DHCP 為不可用的",
    "unavailable_dhcp_desc": "AdGuard Home 無法於您的作業系統上執行 DHCP 伺服器",
    "dhcp_title": "動態主機設定協定（DHCP）伺服器（實驗性的！）",
    "dhcp_description": "如果您的路由器未提供動態主機設定協定（DHCP）設定，您可使用 AdGuard 自身內建的 DHCP 伺服器。",
    "dhcp_enable": "啟用動態主機設定協定（DHCP）伺服器",
    "dhcp_disable": "禁用動態主機設定協定（DHCP）伺服器",
    "dhcp_not_found": "因為 AdGuard Home 於該網路上未發現任何現行的 DHCP 伺服器，啟用內建的動態主機設定協定（DHCP）伺服器為安全的。然而，您應手動地重新檢查那個，因為自動的探查目前不予 100％ 保證。",
    "dhcp_found": "於該網路上，一個現行的動態主機設定協定（DHCP）伺服器被發現。啟用內建的 DHCP 伺服器為不安全的。",
    "dhcp_leases": "動態主機設定協定（DHCP）租約",
    "dhcp_static_leases": "動態主機設定協定（DHCP）靜態租約",
    "dhcp_leases_not_found": "無已發現之動態主機設定協定（DHCP）租約",
    "dhcp_config_saved": "動態主機設定協定（DHCP）配置被成功地儲存",
    "dhcp_ipv4_settings": "DHCP IPv4 設定",
    "dhcp_ipv6_settings": "DHCP IPv6 設定",
    "form_error_required": "必填的欄位",
    "form_error_ip4_format": "無效的 IPv4 格式",
    "form_error_ip6_format": "無效的 IPv6 格式",
    "form_error_ip_format": "無效的 IP 格式",
    "form_error_mac_format": "無效的媒體存取控制（MAC）格式",
    "form_error_client_id_format": "無效的用戶端 ID 格式",
    "form_error_server_name": "無效的伺服器名稱",
    "form_error_subnet": "子網路 \"{{cidr}}\" 不包含該 IP 位址 \"{{ip}}\"",
    "form_error_positive": "必須大於 0",
    "form_error_negative": "必須等於或大於 0",
    "range_end_error": "必須大於起始範圍",
    "dhcp_form_gateway_input": "閘道 IP",
    "dhcp_form_subnet_input": "子網路遮罩",
    "dhcp_form_range_title": "IP 位址範圍",
    "dhcp_form_range_start": "起始範圍",
    "dhcp_form_range_end": "結束範圍",
    "dhcp_form_lease_title": "動態主機設定協定（DHCP）租約時間（以秒數）",
    "dhcp_form_lease_input": "租約期間",
    "dhcp_interface_select": "選擇動態主機設定協定（DHCP）介面",
    "dhcp_hardware_address": "硬體位址",
    "dhcp_ip_addresses": "IP 位址",
    "ip": "IP",
    "dhcp_table_hostname": "主機名稱",
    "dhcp_table_expires": "到期",
    "dhcp_warning": "如果您無論如何想要啟用動態主機設定協定（DHCP）伺服器，確保在您的網路中無其它現行的 DHCP 伺服器，因為對於該網路上的裝置，這可能破壞其網際網路連線！",
    "dhcp_error": "AdGuard Home 無法確定於該網路上是否有另外現行的動態主機設定協定（DHCP）伺服器。",
    "dhcp_static_ip_error": "為了使用動態主機設定協定（DHCP）伺服器，靜態 IP 位址必須被設定。AdGuard Home 未能確定此網路介面是否被配置使用靜態 IP 位址。請手動地設定靜態 IP 位址。",
    "dhcp_dynamic_ip_found": "您的系統使用動態 IP 位址配置供介面 <0>{{interfaceName}}</0>。為了使用動態主機設定協定（DHCP）伺服器，靜態 IP 位址必須被設定。您現行的 IP 位址為 <0>{{ipAddress}}</0>。如果您按\"啟用 DHCP 伺服器\" 按鈕，AdGuard Home 將自動地設定此 IP 位址作為靜態。",
    "dhcp_lease_added": "靜態租約 \"{{key}}\" 被成功地加入",
    "dhcp_lease_deleted": "靜態租約 \"{{key}}\" 被成功地刪除",
    "dhcp_new_static_lease": "新的靜態租約",
    "dhcp_static_leases_not_found": "無已發現之動態主機設定協定（DHCP）靜態租約",
    "dhcp_add_static_lease": "新增靜態租約",
    "dhcp_reset_leases": "重置所有的租約",
    "dhcp_reset_leases_confirm": "您確定您想要重置所有的租約嗎？",
    "dhcp_reset_leases_success": "動態主機設定協定（DHCP）租約被成功地重置",
    "dhcp_reset": "您確定您想要重置動態主機設定協定（DHCP）配置嗎？",
    "country": "國家",
    "city": "城市",
    "delete_confirm": "您確定您想要刪除 \"{{key}}\" 嗎？",
    "form_enter_hostname": "輸入主機名稱",
    "error_details": "錯誤細節",
    "response_details": "回應細節",
    "request_details": "請求細節",
    "client_details": "用戶端細節",
    "details": "細節",
    "back": "返回",
    "dashboard": "儀表板",
    "settings": "設定",
    "filters": "過濾器",
    "filter": "過濾器",
    "query_log": "查詢記錄",
    "compact": "精簡的",
    "nothing_found": "沒找到什麼",
    "faq": "常見問答集",
    "version": "版本",
    "address": "位址",
    "protocol": "協定",
    "on": "開著",
    "off": "關著",
    "copyright": "版權",
    "homepage": "首頁",
    "report_an_issue": "報告問題",
    "privacy_policy": "隱私政策",
    "enable_protection": "啟用防護",
    "enabled_protection": "已啟用防護",
    "disable_protection": "禁用防護",
    "disabled_protection": "已禁用防護",
    "refresh_statics": "重新整理統計資料",
    "dns_query": "DNS 查詢",
    "blocked_by": "<0>被過濾器封鎖</0>",
    "stats_malware_phishing": "已封鎖的惡意軟體/網路釣魚",
    "stats_adult": "已封鎖的成人網站",
    "stats_query_domain": "熱門已查詢的網域",
    "for_last_24_hours": "在最近的 24 小時內",
    "for_last_days": "在最近的 {{count}} 日內",
    "for_last_days_plural": "在最近的 {{count}} 日內",
    "stats_disabled": "該統計資料已被禁用。您可從<0>設定頁面</0>中打開它。",
    "stats_disabled_short": "該統計資料已被禁用",
    "no_domains_found": "無已發現之網域",
    "requests_count": "請求總數",
    "top_blocked_domains": "熱門已封鎖的網域",
    "top_clients": "熱門用戶端",
    "no_clients_found": "無已發現之用戶端",
    "general_statistics": "一般的統計資料",
    "number_of_dns_query_days": "在最近的 {{count}} 日內已處理的 DNS 查詢之數量",
    "number_of_dns_query_days_plural": "在最近的 {{count}} 日內已處理的 DNS 查詢之數量",
    "number_of_dns_query_24_hours": "在最近的 24 小時內已處理的 DNS 查詢之數量",
    "number_of_dns_query_blocked_24_hours": "被廣告封鎖過濾器和主機封鎖清單阻擋的 DNS 請求之數量",
    "number_of_dns_query_blocked_24_hours_by_sec": "被 AdGuard 瀏覽安全模組封鎖的 DNS 請求之數量",
    "number_of_dns_query_blocked_24_hours_adult": "已封鎖的成人網站之數量",
    "enforced_save_search": "已強制執行的安全搜尋",
    "number_of_dns_query_to_safe_search": "安全搜尋已被強制執行之屬於搜尋引擎的 DNS 請求之數量",
    "average_processing_time": "平均的處理時間",
    "average_processing_time_hint": "在處理一項 DNS 請求時以毫秒（ms）計的平均時間",
    "block_domain_use_filters_and_hosts": "透過過濾器和主機檔案封鎖網域",
    "filters_block_toggle_hint": "您可在<a>過濾器</a>設定中設置封鎖規則。",
    "use_adguard_browsing_sec": "使用 AdGuard 瀏覽安全網路服務",
    "use_adguard_browsing_sec_hint": "AdGuard Home 將檢查該網域是否被瀏覽安全網路服務封鎖。它將使用友好的隱私查找應用程式介面（API）以執行檢查：僅域名 SHA256 雜湊的短前綴被傳送到該伺服器。",
    "use_adguard_parental": "使用 AdGuard 家長監控之網路服務",
    "use_adguard_parental_hint": "AdGuard Home 將檢查網域是否包含成人資料。它使用如同瀏覽安全網路服務一樣之友好的隱私應用程式介面（API）。",
    "enforce_safe_search": "使用安全搜尋",
    "enforce_save_search_hint": "AdGuard Home 將在下列的搜尋引擎：Google、YouTube、Bing、DuckDuckGo、Yandex 和 Pixabay 中強制執行安全搜尋。",
    "no_servers_specified": "無已明確指定的伺服器",
    "general_settings": "一般的設定",
    "dns_settings": "DNS 設定",
    "dns_blocklists": "DNS 封鎖清單",
    "dns_allowlists": "DNS 允許清單",
    "dns_blocklists_desc": "AdGuard Home 將阻擋與封鎖清單相符的網域。",
    "dns_allowlists_desc": "即使來自 DNS 允許清單的網域在任何的封鎖清單中，它們將被允許。",
    "custom_filtering_rules": "自訂的過濾規則",
    "encryption_settings": "加密設定",
    "dhcp_settings": "動態主機設定協定（DHCP）設定",
    "upstream_dns": "上游的 DNS 伺服器",
    "upstream_dns_help": "每行輸入一個伺服器位址。<a>了解更多</a>有關配置上游的 DNS 伺服器。",
    "upstream_dns_configured_in_file": "被配置在 {{path}}",
    "test_upstream_btn": "測試上行資料流",
    "upstreams": "上游",
    "apply_btn": "套用",
    "disabled_filtering_toast": "已禁用過濾",
    "enabled_filtering_toast": "已啟用過濾",
    "disabled_safe_browsing_toast": "已禁用安全瀏覽",
    "enabled_safe_browsing_toast": "已啟用安全瀏覽",
    "disabled_parental_toast": "已禁用家長監控",
    "enabled_parental_toast": "已啟用家長監控",
    "disabled_safe_search_toast": "已禁用安全搜尋",
    "enabled_save_search_toast": "已啟用安全搜尋",
    "enabled_table_header": "已啟用",
    "name_table_header": "名稱",
    "list_url_table_header": "清單網址",
    "rules_count_table_header": "規則總數",
    "last_time_updated_table_header": "最近的更新時間",
    "actions_table_header": "動作",
    "request_table_header": "請求",
    "edit_table_action": "編輯",
    "delete_table_action": "刪除",
    "elapsed": "已經過",
    "filters_and_hosts_hint": "AdGuard Home 懂得基本的廣告封鎖規則和主機檔案語法。",
    "no_blocklist_added": "無已加入的封鎖清單",
    "no_whitelist_added": "無已加入的允許清單",
    "add_blocklist": "新增封鎖清單",
    "add_allowlist": "新增允許清單",
    "cancel_btn": "取消",
    "enter_name_hint": "輸入名稱",
    "enter_url_or_path_hint": "輸入一個該清單之網址或絕對的路徑",
    "check_updates_btn": "檢查更新",
    "new_blocklist": "新的封鎖清單",
    "new_allowlist": "新的允許清單",
    "edit_blocklist": "編輯封鎖清單",
    "edit_allowlist": "編輯允許清單",
    "choose_blocklist": "選擇封鎖清單",
    "choose_allowlist": "選擇允許清單",
    "enter_valid_blocklist": "輸入一個到該封鎖清單之有效的網址。",
    "enter_valid_allowlist": "輸入一個到該允許清單之有效的網址。",
    "form_error_url_format": "無效的網址格式",
    "form_error_url_or_path_format": "該清單之網址或絕對的路徑為無效的",
    "custom_filter_rules": "自訂的過濾規則",
    "custom_filter_rules_hint": "於一行上輸入一項規則。您可使用廣告封鎖規則或主機檔案語法。",
    "examples_title": "範例",
    "example_meaning_filter_block": "封鎖至 example.org 網域及其所有的子網域之存取",
    "example_meaning_filter_whitelist": "解除封鎖至 example.org 網域及其所有的子網域之存取",
    "example_meaning_host_block": "AdGuard Home 現在將對 example.org 網域（但非其子網域）返回 127.0.0.1 位址。",
    "example_comment": "! 看，一個註解",
    "example_comment_meaning": "只是一個註解",
    "example_comment_hash": "# 也是一個註解",
    "example_regex_meaning": "封鎖至與該已明確指定的規則運算式（Regular Expression）相符的網域之存取",
    "example_upstream_regular": "一般的 DNS（透過 UDP）",
    "example_upstream_dot": "加密的 <0>DNS-over-TLS</0>",
    "example_upstream_doh": "加密的 <0>DNS-over-HTTPS</0>",
    "example_upstream_doq": "加密的 <0>DNS-over-QUIC</0>",
    "example_upstream_sdns": "您可使用關於 <1>DNSCrypt</1> 或 <2>DNS-over-HTTPS</2> 解析器之 <0>DNS 戳記</0>",
    "example_upstream_tcp": "一般的 DNS（透過 TCP）",
    "all_lists_up_to_date_toast": "所有的清單已是最新的",
    "updated_upstream_dns_toast": "已更新上游的 DNS 伺服器",
    "dns_test_ok_toast": "已明確指定的 DNS 伺服器正在正確地運作",
    "dns_test_not_ok_toast": "伺服器 \"{{key}}\"：無法被使用，請檢查您已正確地填寫它",
    "unblock": "解除封鎖",
    "block": "封鎖",
    "disallow_this_client": "不允許此用戶端",
    "allow_this_client": "允許此用戶端",
    "block_for_this_client_only": "僅封鎖此用戶端",
    "unblock_for_this_client_only": "僅解除封鎖此用戶端",
    "time_table_header": "時間",
    "date": "日期",
    "domain_name_table_header": "域名",
    "domain_or_client": "網域或用戶端",
    "type_table_header": "類型",
    "response_table_header": "回應",
    "response_code": "回應碼",
    "client_table_header": "用戶端",
    "empty_response_status": "空無的",
    "show_all_filter_type": "顯示全部",
    "show_filtered_type": "顯示受過濾的",
    "no_logs_found": "無已發現之記錄",
    "refresh_btn": "重新整理",
    "previous_btn": "上一頁",
    "next_btn": "下一頁",
    "loading_table_status": "正在載入…",
    "page_table_footer_text": "頁面",
    "rows_table_footer_text": "列",
    "updated_custom_filtering_toast": "已更新自訂的過濾規則",
    "rule_removed_from_custom_filtering_toast": "從自訂的過濾規則中被移除的規則：{{rule}}",
    "rule_added_to_custom_filtering_toast": "被加至自訂的過濾規則中的規則：{{rule}}",
    "query_log_response_status": "狀態：{{value}}",
    "query_log_filtered": "被 {{filter}} 過濾",
    "query_log_confirm_clear": "您確定您想要清除整個查詢記錄嗎？",
    "query_log_cleared": "該查詢記錄已被成功地清除",
    "query_log_updated": "該查詢記錄已被成功地更新",
    "query_log_clear": "清除查詢記錄",
    "query_log_retention": "查詢記錄保留",
    "query_log_enable": "啟用記錄",
    "query_log_configuration": "記錄配置",
    "query_log_disabled": "查詢記錄被禁用並可在<0>設定</0>中被配置",
    "query_log_strict_search": "使用雙引號於嚴謹的搜尋",
    "query_log_retention_confirm": "您確定您想要更改查詢記錄保留嗎？如果您減少該間隔值，某些資料將被丟失",
    "anonymize_client_ip": "將用戶端 IP 匿名",
    "anonymize_client_ip_desc": "不要在記錄和統計資料中儲存用戶端之完整的 IP 位址",
    "dns_config": "DNS 伺服器配置",
    "dns_cache_config": "DNS 快取配置",
    "dns_cache_config_desc": "於此您可配置 DNS 快取",
    "blocking_mode": "封鎖模式",
    "default": "預設",
    "nxdomain": "不存在的網域（NXDOMAIN）",
    "refused": "已拒絕（REFUSED）",
    "null_ip": "無效的 IP",
    "custom_ip": "自訂的 IP",
    "blocking_ipv4": "封鎖 IPv4",
    "blocking_ipv6": "封鎖 IPv6",
    "dnscrypt": "DNSCrypt",
    "dns_over_https": "DNS-over-HTTPS",
    "dns_over_tls": "DNS-over-TLS",
    "dns_over_quic": "DNS-over-QUIC",
    "client_id": "用戶端 ID",
    "client_id_placeholder": "輸入用戶端 ID",
    "client_id_desc": "不同的用戶端可根據特殊的用戶端 ID 被識別。<0>於此</0>，您可了解更多關於如何識別用戶端。",
    "download_mobileconfig_doh": "下載用於 DNS-over-HTTPS 的 .mobileconfig",
    "download_mobileconfig_dot": "下載用於 DNS-over-TLS 的 .mobileconfig",
    "download_mobileconfig": "下載配置檔案",
    "plain_dns": "一般的 DNS",
    "form_enter_rate_limit": "輸入速率限制",
    "rate_limit": "速率限制",
    "edns_enable": "啟用對於 DNS 的擴充機制（EDNS）用戶端子網路",
    "edns_cs_desc": "傳送用戶端的子網路到該 DNS 伺服器。",
    "rate_limit_desc": "每個用戶端被允許的每秒請求之數量。設定它為 0 表示無限制。",
    "blocking_ipv4_desc": "要被返回給已封鎖的 A 請求之 IP 位址",
    "blocking_ipv6_desc": "要被返回給已封鎖的 AAAA 請求之 IP 位址",
    "blocking_mode_default": "預設：當被 AdBlock 樣式的規則封鎖時，以零值 IP 位址（0.0.0.0 供 A；:: 供 AAAA）回覆；當被 /etc/hosts 樣式的規則封鎖時，以在該規則中之已明確指定的 IP 位址回覆",
    "blocking_mode_refused": "已拒絕（REFUSED）：以 REFUSED 碼回覆",
    "blocking_mode_nxdomain": "不存在的網域（NXDOMAIN）：以 NXDOMAIN 碼回覆",
    "blocking_mode_null_ip": "無效的 IP：以零值 IP 位址（0.0.0.0 供 A；:: 供 AAAA）回覆",
    "blocking_mode_custom_ip": "自訂的 IP：以一組手動地被設定的 IP 位址回覆",
    "upstream_dns_client_desc": "如果您將此欄位留空，AdGuard Home 將使用在 <0>DNS 設定</0>中被配置的伺服器。",
    "tracker_source": "追蹤器來源",
    "source_label": "來源",
    "found_in_known_domain_db": "在已知的域名資料庫中被發現。",
    "category_label": "類別",
    "rule_label": "規則",
    "list_label": "清單",
    "unknown_filter": "未知的過濾器 {{filterId}}",
    "known_tracker": "已知的追蹤器",
    "install_welcome_title": "歡迎至 AdGuard Home！",
    "install_welcome_desc": "AdGuard Home 是全網路範圍廣告和追蹤器封鎖的 DNS 伺服器。它的目的為讓您控制您的整個網路和所有您的裝置，且不需要使用用戶端程式。",
    "install_settings_title": "管理員網路介面",
    "install_settings_listen": "監聽介面",
    "install_settings_port": "連接埠",
    "install_settings_interface_link": "您的 AdGuard Home 管理員網路介面將於下列的位址上為可用的：",
    "form_error_port": "輸入有效的連接埠號碼",
    "install_settings_dns": "DNS 伺服器",
    "install_settings_dns_desc": "您將需要配置您的裝置或路由器以使用於下列的位址上之 DNS 伺服器：",
    "install_settings_all_interfaces": "所有的介面",
    "install_auth_title": "驗證",
    "install_auth_desc": "配置屬於您的 AdGuard Home 管理員網路介面之密碼驗證是被非常建議的。即使它僅在您的區域網路中為可存取的，保護它免於不受限制的存取為仍然重要的。",
    "install_auth_username": "使用者名稱",
    "install_auth_password": "密碼",
    "install_auth_confirm": "確認密碼",
    "install_auth_username_enter": "輸入使用者名稱",
    "install_auth_password_enter": "輸入密碼",
    "install_step": "步驟",
    "install_devices_title": "配置您的裝置",
    "install_devices_desc": "為了開始使用 AdGuard Home，您需要配置您的裝置以使用它。",
    "install_submit_title": "恭喜！",
    "install_submit_desc": "該設置程序被完成，且您準備好開始使用 AdGuard Home。",
    "install_devices_router": "路由器",
    "install_devices_router_desc": "此設置將自動地涵蓋所有被連線到您的家庭路由器之裝置，而您將無需手動地配置它們。",
    "install_devices_address": "AdGuard Home DNS 伺服器正在監聽下列的位址",
    "install_devices_router_list_1": "開啟用於您的路由器之偏好設定。通常地，您可透過網址，諸如 http://192.168.0.1/ 或 http://192.168.1.1/，從您的瀏覽器中存取它。您可能被提醒輸入密碼。如果您不記得它，您經常可透過按壓於該路由器本身上的按鈕來重置密碼，但請明白如果此步驟被選擇，您將可能失去整個路由器配置。如果您的路由器需要應用程式去設置它，請於您的手機或個人電腦上安裝該應用程式，並使用它來存取該路由器的設定。",
    "install_devices_router_list_2": "找到 DHCP/DNS 設定。尋找緊鄰著允許兩組或三組數字集的欄位之 DNS 字母，每組被拆成四個含有一至三個數字的群集。",
    "install_devices_router_list_3": "在那裡輸入您的 AdGuard Home 伺服器位址。",
    "install_devices_router_list_4": "於某些路由器機型上，自訂的 DNS 伺服器無法被設置。在這種情況下，設置 AdGuard Home 作為 <0>DHCP</0> 伺服器可能有所幫助。否則，您應查明有關如何對您的特定路由器型號自訂 DNS 伺服器之路由器用法說明。",
    "install_devices_windows_list_1": "通過開始功能表或 Windows 搜尋，開啟控制台。",
    "install_devices_windows_list_2": "去網路和網際網路類別，然後去網路和共用中心。",
    "install_devices_windows_list_3": "於畫面之左側上找到\"變更介面卡設定\"並向它點擊。",
    "install_devices_windows_list_4": "選擇您現行的連線，向它點擊滑鼠右鍵，然後選擇內容。",
    "install_devices_windows_list_5": "在清單中找到\"網際網路通訊協定第 4 版（TCP/IPv4）\"[或用於 IPv6，\"網際網路通訊協定第 6 版（TCP/IPv6）\"]，選擇它，然後再次向內容點擊。",
    "install_devices_windows_list_6": "選擇\"使用下列的 DNS 伺服器位址\"，然後輸入您的 AdGuard Home 伺服器位址。",
    "install_devices_macos_list_1": "向 Apple 圖像點擊，然後去系統偏好設定。",
    "install_devices_macos_list_2": "向網路點擊。",
    "install_devices_macos_list_3": "選擇在您的清單中之首要的連線，然後點擊進階的。",
    "install_devices_macos_list_4": "選擇該 DNS 分頁，然後輸入您的 AdGuard Home 伺服器位址。",
    "install_devices_android_list_1": "從 Android 選單主畫面中，輕觸設定。",
    "install_devices_android_list_2": "於該選單上輕觸 Wi-Fi。正在列出所有可用的網路之畫面將被顯示（不可能為行動連線設定自訂的 DNS）。",
    "install_devices_android_list_3": "長按您所連線至的網路，然後輕觸修改網路。",
    "install_devices_android_list_4": "於某些裝置上，您可能需要檢查關於進階的方框以查看進一步的設定。為了調整您的 Android DNS 設定，您將需要把 IP 設定從 DHCP 轉換成靜態。",
    "install_devices_android_list_5": "更改 DNS 1 和 DNS 2 值為您的 AdGuard Home 伺服器位址。",
    "install_devices_ios_list_1": "從主畫面中，輕觸設定。",
    "install_devices_ios_list_2": "在左側的選單中選擇 Wi-Fi（不可能為行動網路配置 DNS）。",
    "install_devices_ios_list_3": "向目前現行的網路之名稱輕觸。",
    "install_devices_ios_list_4": "在該 DNS 欄位中，輸入您的 AdGuard Home 伺服器位址。",
    "get_started": "開始吧",
    "next": "下一頁",
    "open_dashboard": "開啟儀表板",
    "install_saved": "被成功地儲存",
    "encryption_title": "加密",
    "encryption_desc": "供 DNS 和管理員網路介面兩者之加密（HTTPS/TLS）支援",
    "encryption_config_saved": "加密配置被儲存",
    "encryption_server": "伺服器名稱",
    "encryption_server_enter": "輸入您的域名",
    "encryption_server_desc": "為了使用 HTTPS，您需要輸入與您的安全通訊端層（SSL）憑證或萬用字元憑證相符的伺服器名稱。如果此欄位未被設定，它將接受向任何網域的傳輸層安全性協定（TLS）連線。",
    "encryption_redirect": "自動地重新導向到 HTTPS",
    "encryption_redirect_desc": "如果被勾選，AdGuard Home 將自動地重新導向您從 HTTP 到 HTTPS 位址。",
    "encryption_https": "HTTPS 連接埠",
    "encryption_https_desc": "如果 HTTPS 連接埠被配置，AdGuard Home 管理員介面透過 HTTPS 將為可存取的，且它也將於 '/dns-query' 位置上提供 DNS-over-HTTPS。",
    "encryption_dot": "DNS-over-TLS 連接埠",
    "encryption_dot_desc": "如果該連接埠被配置，AdGuard Home 將於此連接埠上運行 DNS-over-TLS 伺服器。",
    "encryption_doq": "DNS-over-QUIC 連接埠",
    "encryption_doq_desc": "如果此連接埠被配置，AdGuard Home 將於此連接埠上運行 DNS-over-QUIC 伺服器。它是實驗性的並可能為不可靠的。再者，此刻沒有太多支援它的用戶端。",
    "encryption_certificates": "憑證",
    "encryption_certificates_desc": "為了使用加密，您需要提供有效的安全通訊端層（SSL）憑證鏈結供您的網域。於 <0>{{link}}</0> 上您可取得免費的憑證或您可從受信任的憑證授權單位之一購買它。",
    "encryption_certificates_input": "於此複製/貼上您的隱私增強郵件編碼之（PEM-encoded）憑證。",
    "encryption_status": "狀態",
    "encryption_expire": "到期",
    "encryption_key": "私密金鑰",
    "encryption_key_input": "於此複製/貼上您的隱私增強郵件編碼之（PEM-encoded）私密金鑰供您的憑證。",
    "encryption_enable": "啟用加密（HTTPS、DNS-over-HTTPS 和 DNS-over-TLS）",
    "encryption_enable_desc": "如果加密被啟用，AdGuard Home 管理員介面透過 HTTPS 將運作，且該 DNS 伺服器將留心監聽透過 DNS-over-HTTPS 和 DNS-over-TLS 之請求。",
    "encryption_chain_valid": "憑證鏈結為有效的",
    "encryption_chain_invalid": "憑證鏈結為無效的",
    "encryption_key_valid": "此為有效的 {{type}} 私密金鑰",
    "encryption_key_invalid": "此為無效的 {{type}} 私密金鑰",
    "encryption_subject": "物件",
    "encryption_issuer": "簽發者",
    "encryption_hostnames": "主機名稱",
    "encryption_reset": "您確定您想要重置加密設定嗎？",
    "topline_expiring_certificate": "您的安全通訊端層（SSL）憑證即將到期。更新<0>加密設定</0>。",
    "topline_expired_certificate": "您的安全通訊端層（SSL）憑證為已到期的。更新<0>加密設定</0>。",
    "form_error_port_range": "輸入在 80-65535 之範圍內的連接埠號碼",
    "form_error_port_unsafe": "此為不安全的連接埠",
    "form_error_equal": "必須為不相等的",
    "form_error_password": "不相符的密碼",
    "reset_settings": "重置設定",
    "update_announcement": "AdGuard Home {{version}} 現為可用的！關於更多的資訊，<0>點擊這裡</0>。",
    "setup_guide": "設置指南",
    "dns_addresses": "DNS 位址",
    "dns_start": "DNS 伺服器正在啟動",
    "dns_status_error": "檢查 DNS 伺服器狀態出錯",
    "down": "停止運作的",
    "fix": "修復",
    "dns_providers": "這裡是一個從中選擇之<0>已知的 DNS 供應商之清單</0>。",
    "update_now": "立即更新",
    "update_failed": "自動更新已失敗。請<a>遵循這些步驟</a>以手動地更新。",
    "processing_update": "請稍候，AdGuard Home 正被更新",
    "clients_title": "用戶端",
    "clients_desc": "配置被連線到 AdGuard Home 的裝置",
    "settings_global": "全域的",
    "settings_custom": "自訂的",
    "table_client": "用戶端",
    "table_name": "名稱",
    "save_btn": "儲存",
    "client_add": "新增用戶端",
    "client_new": "新的用戶端",
    "client_edit": "編輯用戶端",
    "client_identifier": "識別碼",
    "ip_address": "IP 位址",
    "client_identifier_desc": "用戶端可根據 IP 位址、無類別網域間路由（CIDR）、媒體存取控制（MAC）位址或特殊的用戶端 ID（可被用於 DoT/DoH/DoQ）被識別。<0>於此</0>，您可了解更多關於如何識別用戶端。",
    "form_enter_ip": "輸入 IP",
    "form_enter_subnet_ip": "在子網路 \"{{cidr}}\" 中輸入一組 IP 位址",
    "form_enter_mac": "輸入媒體存取控制（MAC）",
    "form_enter_id": "輸入識別碼",
    "form_add_id": "新增識別碼",
    "form_client_name": "輸入用戶端名稱",
    "name": "名稱",
    "client_global_settings": "使用全域的設定",
    "client_deleted": "用戶端 \"{{key}}\" 被成功地刪除",
    "client_added": "用戶端 \"{{key}}\" 被成功地加入",
    "client_updated": "用戶端 \"{{key}}\" 被成功地更新",
    "clients_not_found": "無已發現之用戶端",
    "client_confirm_delete": "您確定您想要刪除用戶端 \"{{key}}\" 嗎？",
    "list_confirm_delete": "您確定您想要刪除該清單嗎？",
    "auto_clients_title": "用戶端（執行時期）",
    "auto_clients_desc": "使用 AdGuard Home 但未被儲存在配置中之關於用戶端的資料",
    "access_title": "存取設定",
    "access_desc": "於此您可配置用於 AdGuard Home DNS 伺服器之存取規則。",
    "access_allowed_title": "已允許的用戶端",
    "access_allowed_desc": "無類別網域間路由（CIDRs）、IP 位址或用戶端 ID 之清單。如果被配置，AdGuard Home 將接受僅來自這些用戶端的請求。",
    "access_disallowed_title": "未被允許的用戶端",
    "access_disallowed_desc": "無類別網域間路由（CIDRs）、IP 位址或用戶端 IDs 之清單。如果被配置，AdGuard Home 將排除來自這些用戶端的請求。如果已允許的用戶端被配置，此欄位被忽略。",
    "access_blocked_title": "未被允許的網域",
    "access_blocked_desc": "不要把這個和過濾器混淆。AdGuard Home 排除與這些網域相符的 DNS 查詢，且這些查詢甚至不會出現在查詢記錄中。您可相應地明確指定確切的域名、萬用字元（wildcard）或網址過濾器的規則，例如，\"example.org\"、\"*.example.org\" 或 \"||example.org^\"。",
    "access_settings_saved": "存取設定被成功地儲存",
    "updates_checked": "更新被成功地檢查",
    "updates_version_equal": "AdGuard Home 為最新的",
    "check_updates_now": "立即檢查更新",
    "dns_privacy": "DNS 隱私",
    "setup_dns_privacy_1": "<0>DNS-over-TLS：</0>使用 <1>{{address}}</1> 字串。",
    "setup_dns_privacy_2": "<0>DNS-over-HTTPS：</0>使用 <1>{{address}}</1> 字串。",
    "setup_dns_privacy_3": "<0>這裡是您可使用的軟體之清單。</0>",
    "setup_dns_privacy_4": "於 iOS 14 或 macOS Big Sur 裝置上，您可下載新增 <highlight>DNS-over-HTTPS</highlight> 或 <highlight>DNS-over-TLS</highlight> 伺服器到 DNS 設定之特殊的 '.mobileconfig' 檔案。",
    "setup_dns_privacy_android_1": "Android 9 原生地支援 DNS-over-TLS。為了配置它，去設定 → 網路 & 網際網路 → 進階 → 私人 DNS 並在那輸入您的域名。",
    "setup_dns_privacy_android_2": "<0>AdGuard for Android</0> 支援 <1>DNS-over-HTTPS</1> 和 <1>DNS-over-TLS</1>。",
    "setup_dns_privacy_android_3": "<0>Intra</0> 對 Android 新增 <1>DNS-over-HTTPS</1> 支援。",
    "setup_dns_privacy_ios_1": "<0>DNSCloak</0> 支援 <1>DNS-over-HTTPS</1>，但為了配置它以使用您自己的伺服器，您將需要為它產生一個 <2>DNS 戳記</2>。",
    "setup_dns_privacy_ios_2": "<0>AdGuard for iOS</0> 支援 <1>DNS-over-HTTPS</1> 和 <1>DNS-over-TLS</1> 設置。",
    "setup_dns_privacy_other_title": "其它的執行",
    "setup_dns_privacy_other_1": "於任何的平台上，AdGuard Home 它本身可以是安全的 DNS 用戶端。",
    "setup_dns_privacy_other_2": "<0>dnsproxy</0> 支援所有已知安全的 DNS 協定。",
    "setup_dns_privacy_other_3": "<0>dnscrypt-proxy</0> 支援 <1>DNS-over-HTTPS</1>。",
    "setup_dns_privacy_other_4": "<0>Mozilla Firefox</0> 支援 <1>DNS-over-HTTPS</1>。",
    "setup_dns_privacy_other_5": "在<0>這裡</0>和<1>這裡</1>，您將發現更多的執行。",
    "setup_dns_privacy_ioc_mac": "iOS 和 macOS 配置",
    "setup_dns_notice": "為了使用 <1>DNS-over-HTTPS</1> 或 <1>DNS-over-TLS</1>，您需要在 AdGuard Home 設定裡<0>配置加密</0>。",
    "rewrite_added": "對於 \"{{key}}\" 之 DNS 改寫被成功地加入",
    "rewrite_deleted": "對於 \"{{key}}\" 之 DNS 改寫被成功地刪除",
    "rewrite_add": "新增 DNS 改寫",
    "rewrite_not_found": "無已發現之 DNS 改寫",
    "rewrite_confirm_delete": "您確定您想要刪除對於 \"{{key}}\" 之 DNS 改寫嗎？",
    "rewrite_desc": "允許輕易地配置自訂的 DNS 回應供特定的域名。",
    "rewrite_applied": "改寫規則被套用",
    "rewrite_hosts_applied": "被該主機檔案規則改寫",
    "dns_rewrites": "DNS 改寫",
    "form_domain": "輸入域名或萬用字元（wildcard）",
    "form_answer": "輸入 IP 位址或域名",
    "form_error_domain_format": "無效的網域格式",
    "form_error_answer_format": "無效的回應格式",
    "configure": "配置",
    "main_settings": "主設定",
    "block_services": "封鎖特定的服務",
    "blocked_services": "已封鎖的服務",
    "blocked_services_desc": "允許立即封鎖熱門的網站和服務。",
    "blocked_services_saved": "已封鎖的服務被成功地儲存",
    "blocked_services_global": "使用全域已封鎖的服務",
    "blocked_service": "已封鎖的服務",
    "block_all": "封鎖全部",
    "unblock_all": "解除封鎖全部",
    "encryption_certificate_path": "憑證路徑",
    "encryption_private_key_path": "私密金鑰路徑",
    "encryption_certificates_source_path": "設定一個憑證檔案路徑",
    "encryption_certificates_source_content": "貼上該憑證內容",
    "encryption_key_source_path": "設定一個私密金鑰檔案",
    "encryption_key_source_content": "貼上該私密金鑰內容",
    "stats_params": "統計資料配置",
    "config_successfully_saved": "配置被成功地儲存",
    "interval_6_hour": "6 小時",
    "interval_24_hour": "24 小時",
    "interval_days": "{{count}} 日",
    "interval_days_plural": "{{count}} 日",
    "domain": "網域",
    "punycode": "國際化域名代碼（Punycode）",
    "answer": "回應",
    "filter_added_successfully": "該清單已被成功地加入",
    "filter_removed_successfully": "該清單已被成功地移除",
    "filter_updated": "該清單已被成功地更新",
    "statistics_configuration": "統計資料配置",
    "statistics_retention": "統計資料保留",
    "statistics_retention_desc": "如果您減少該間隔值，某些資料將被丟失",
    "statistics_clear": " 清除統計資料",
    "statistics_clear_confirm": "您確定您想要清除統計資料嗎？",
    "statistics_retention_confirm": "您確定您想要更改統計資料保留嗎？如果您減少該間隔值，某些資料將被丟失",
    "statistics_cleared": "統計資料被成功地清除",
    "interval_hours": "{{count}} 小時",
    "interval_hours_plural": "{{count}} 小時",
    "filters_configuration": "過濾器配置",
    "filters_enable": "啟用過濾器",
    "filters_interval": "過濾器更新間隔",
    "disabled": "已禁用",
    "username_label": "使用者名稱",
    "username_placeholder": "輸入使用者名稱",
    "password_label": "密碼",
    "password_placeholder": "輸入密碼",
    "sign_in": "登入",
    "sign_out": "登出",
    "forgot_password": "忘了密碼嗎？",
    "forgot_password_desc": "請遵循<0>這些步驟</0>以創建一組新的密碼供您的使用者帳戶。",
    "location": "位置",
    "orgname": "組織名稱",
    "netname": "網路名稱",
    "network": "網路",
    "descr": "說明",
    "whois": "Whois",
    "filtering_rules_learn_more": "<0>了解更多</0>有關創建您自己的主機（hosts）清單。",
    "blocked_by_response": "在回應過程中被正規名稱（CNAME）或 IP 封鎖",
    "blocked_by_cname_or_ip": "被正規名稱（CNAME）或 IP 封鎖",
    "try_again": "再次嘗試",
    "domain_desc": "輸入您想要被改寫的域名或萬用字元（wildcard）。",
    "example_rewrite_domain": "僅對於此域名改寫回應。",
    "example_rewrite_wildcard": "對於所有的 <0>example.org</0> 子網域改寫回應。",
    "rewrite_ip_address": "IP 位址：在一個 A 或 AAAA 回應中使用此 IP",
    "rewrite_domain_name": "域名：新增一筆正規名稱（CNAME）記錄",
    "rewrite_A": "<0>A</0>：特殊的數值，阻止 <0>A</0> 記錄免於該上游",
    "rewrite_AAAA": "<0>AAAA</0>：特殊的數值，阻止 <0>AAAA</0> 記錄免於該上游",
    "disable_ipv6": "禁用 IPv6 位址之解析",
    "disable_ipv6_desc": "丟棄所有對於 IPv6 位址（類型 AAAA）的 DNS 查詢。",
    "fastest_addr": "最快的 IP 位址",
    "fastest_addr_desc": "查詢所有的 DNS 伺服器並返回在所有的回應之中最快的 IP 位址。因為 AdGuard Home 必須等待來自所有的 DNS 伺服器之回應，這使 DNS 查詢變慢，但改善總體的連線。",
    "autofix_warning_text": "如果您點擊\"修復\"，AdGuard Home 將配置您的系統使用 AdGuard Home DNS 伺服器。",
    "autofix_warning_list": "它將執行這些任務：<0>撤銷系統 DNSStubListener</0> <0>設定 DNS 伺服器位址為 127.0.0.1</0> <0>用 /run/systemd/resolve/resolv.conf 取代 /etc/resolv.conf 的符號連結目標</0> <0>停止 DNSStubListener（重新載入 systemd 已解析的服務）</0>",
    "autofix_warning_result": "因此，預設下，來自您的系統之所有的 DNS 請求將被 AdGuard Home 處理。",
    "tags_title": "標記",
    "tags_desc": "您可選擇對應該用戶端的標記。標記可被包括在過濾規則中並允許您更準確地套用它們。<0>了解更多</0>",
    "form_select_tags": "選擇用戶端標記",
    "check_title": "檢查該過濾",
    "check_desc": "檢查該主機名稱是否被過濾",
    "check": "檢查",
    "form_enter_host": "輸入主機名稱",
    "filtered_custom_rules": "被自訂的過濾規則過濾",
    "choose_from_list": "從該清單中選擇",
    "add_custom_list": "新增一個自訂的清單",
    "host_whitelisted": "該主機被允許",
    "check_ip": "IP 位址：{{ip}}",
    "check_cname": "正規名稱（CNAME）：{{cname}}",
    "check_reason": "原因：{{reason}}",
    "check_service": "服務名稱：{{service}}",
    "service_name": "服務名稱",
    "check_not_found": "未在您的過濾器中被找到",
    "client_confirm_block": "您確定您想要封鎖該用戶端 \"{{ip}}\" 嗎？",
    "client_confirm_unblock": "您確定您想要解除封鎖該用戶端 \"{{ip}}\" 嗎？",
    "client_blocked": "用戶端 \"{{ip}}\" 被成功地封鎖",
    "client_unblocked": "用戶端 \"{{ip}}\" 被成功地解除封鎖",
    "static_ip": "靜態 IP 位址",
    "static_ip_desc": "AdGuard Home 是一台伺服器，因此它需要一組靜態 IP 位址以正確地運作。否則，在某些時候，您的路由器可能分配一組不同的 IP 位址給此裝置。",
    "set_static_ip": "設定一組靜態 IP 位址",
    "install_static_ok": "好消息！該靜態 IP 位址已被配置",
    "install_static_error": "AdGuard Home 無法自動地配置它供此網路介面。請尋找有關如何手動地完成這個的用法說明。",
    "install_static_configure": "AdGuard Home 已偵測到動態 IP 位址 <0>{{ip}}</0> 被使用。您想要它被設定為您的靜態位址嗎？",
    "confirm_static_ip": "AdGuard Home 將配置 {{ip}} 為您的靜態 IP 位址。您想要繼續嗎？",
    "list_updated": "{{count}} 清單被更新",
    "list_updated_plural": "{{count}} 清單被更新",
    "dnssec_enable": "啟用網域名稱系統安全性擴充功能（DNSSEC）",
    "dnssec_enable_desc": "在發出的 DNS 查詢中設定 DNSSEC 標記並檢查該結果（已啟用 DNSSEC 的解析器是必須的）。",
    "validated_with_dnssec": "已用網域名稱系統安全性擴充功能（DNSSEC）驗證",
    "all_queries": "所有的查詢",
    "show_blocked_responses": "已封鎖的",
    "show_whitelisted_responses": "已允許的",
    "show_processed_responses": "已處理的",
    "blocked_safebrowsing": "被安全瀏覽封鎖",
    "blocked_adult_websites": "已封鎖的成人網站",
    "blocked_threats": "已封鎖的威脅",
    "allowed": "已允許的",
    "filtered": "受過濾的",
    "rewritten": "已改寫的",
    "safe_search": "安全搜尋",
    "blocklist": "封鎖清單",
    "milliseconds_abbreviation": "ms",
    "cache_size": "快取大小",
    "cache_size_desc": "DNS 快取大小（以位元組）",
    "cache_ttl_min_override": "覆寫最小的存活時間（TTL）",
    "cache_ttl_max_override": "覆寫最大的存活時間（TTL）",
    "enter_cache_size": "輸入快取大小（位元組）",
    "enter_cache_ttl_min_override": "輸入最小的存活時間（秒）",
    "enter_cache_ttl_max_override": "輸入最大的存活時間（秒）",
    "cache_ttl_min_override_desc": "當快取 DNS 回應時，延長從上游的伺服器收到的短存活時間數值（秒）",
    "cache_ttl_max_override_desc": "設定最大的存活時間數值（秒）供在 DNS 快取中的項目",
    "ttl_cache_validation": "最小的快取存活時間（TTL）數值必須小於或等於最大的數值",
    "cache_optimistic": "樂觀快取",
    "cache_optimistic_desc": "即使當項目為已到期的，從快取使 AdGuard Home 回覆，並還嘗試重新整理它們。",
    "filter_category_general": "一般的",
    "filter_category_security": "安全性",
    "filter_category_regional": "區域性的",
    "filter_category_other": "其它的",
    "filter_category_general_desc": "封鎖大多數朝向裝置的追蹤和廣告之清單",
    "filter_category_security_desc": "專門地封鎖惡意、網路釣魚和詐騙的網域之清單",
    "filter_category_regional_desc": "專注於區域性的廣告和追蹤伺服器之清單",
    "filter_category_other_desc": "其它的封鎖清單",
    "setup_config_to_enable_dhcp_server": "設置配置以啟用 DHCP 伺服器",
    "original_response": "原始的回應",
    "click_to_view_queries": "點擊以檢視查詢",
    "port_53_faq_link": "連接埠 53 常被 \"DNSStubListener\" 或 \"systemd-resolved\" 服務佔用。請閱讀有關如何解決這個的<0>用法說明</0>。",
    "adg_will_drop_dns_queries": "AdGuard Home 將持續排除來自此用戶端之所有的 DNS 查詢。",
    "client_not_in_allowed_clients": "該用戶端未被允許，因為它不在\"已允許的用戶端\"清單中。",
    "experimental": "實驗性的"
}
